info face="font1_26" size=26 bold=0 italic=0 charset="" unicode=1 stretchH=100 smooth=1 aa=2 padding=0,0,0,0 spacing=0,0
common lineHeight=30 base=24 scaleW=1 scaleH=1 pages=1 packed=0 alphaChnl=0 redChnl=0 greenChnl=0 blueChnl=0
page id=0 file="font1_26/font1_26.png"
chars count=193
char id=0    x=4    y=2    width=0    height=0    xoffset=0    yoffset=24   xadvance=0    page=0    chnl=0
char id=32   x=0    y=0    width=6    height=0    xoffset=0    yoffset=0    xadvance=6    page=0    chnl=0
char id=33   x=2    y=339  width=3    height=19   xoffset=2    yoffset=5    xadvance=6    page=0    chnl=0
char id=34   x=2    y=472  width=6    height=6    xoffset=2    yoffset=5    xadvance=9    page=0    chnl=0
char id=35   x=35   y=74   width=14   height=19   xoffset=2    yoffset=5    xadvance=17   page=0    chnl=0
char id=36   x=122  y=4    width=12   height=24   xoffset=1    yoffset=3    xadvance=15   page=0    chnl=0
char id=37   x=51   y=137  width=17   height=19   xoffset=1    yoffset=5    xadvance=19   page=0    chnl=0
char id=38   x=51   y=74   width=16   height=19   xoffset=1    yoffset=5    xadvance=16   page=0    chnl=0
char id=39   x=2    y=480  width=3    height=6    xoffset=1    yoffset=5    xadvance=5    page=0    chnl=0
char id=40   x=2    y=4    width=7    height=27   xoffset=2    yoffset=3    xadvance=9    page=0    chnl=0
char id=41   x=11   y=4    width=8    height=27   xoffset=0    yoffset=3    xadvance=9    page=0    chnl=0
char id=42   x=333  y=53   width=12   height=11   xoffset=0    yoffset=5    xadvance=12   page=0    chnl=0
char id=43   x=51   y=495  width=13   height=13   xoffset=1    yoffset=9    xadvance=15   page=0    chnl=0
char id=44   x=2    y=454  width=5    height=7    xoffset=0    yoffset=21   xadvance=6    page=0    chnl=0
char id=45   x=11   y=226  width=6    height=2    xoffset=1    yoffset=15   xadvance=8    page=0    chnl=0
char id=46   x=2    y=500  width=3    height=3    xoffset=2    yoffset=21   xadvance=6    page=0    chnl=0
char id=47   x=21   y=99   width=10   height=20   xoffset=0    yoffset=5    xadvance=11   page=0    chnl=0
char id=48   x=51   y=200  width=12   height=19   xoffset=1    yoffset=5    xadvance=14   page=0    chnl=0
char id=49   x=11   y=183  width=8    height=19   xoffset=2    yoffset=5    xadvance=15   page=0    chnl=0
char id=50   x=51   y=368  width=12   height=19   xoffset=1    yoffset=5    xadvance=14   page=0    chnl=0
char id=51   x=51   y=347  width=12   height=19   xoffset=1    yoffset=5    xadvance=14   page=0    chnl=0
char id=52   x=51   y=326  width=13   height=19   xoffset=1    yoffset=5    xadvance=15   page=0    chnl=0
char id=53   x=51   y=305  width=13   height=19   xoffset=1    yoffset=5    xadvance=14   page=0    chnl=0
char id=54   x=51   y=284  width=12   height=19   xoffset=2    yoffset=5    xadvance=15   page=0    chnl=0
char id=55   x=51   y=263  width=12   height=19   xoffset=1    yoffset=5    xadvance=14   page=0    chnl=0
char id=56   x=51   y=242  width=12   height=19   xoffset=1    yoffset=5    xadvance=14   page=0    chnl=0
char id=57   x=51   y=221  width=12   height=19   xoffset=1    yoffset=5    xadvance=14   page=0    chnl=0
char id=58   x=2    y=416  width=3    height=14   xoffset=2    yoffset=10   xadvance=6    page=0    chnl=0
char id=59   x=2    y=360  width=4    height=18   xoffset=0    yoffset=10   xadvance=5    page=0    chnl=0
char id=60   x=274  y=53   width=11   height=12   xoffset=1    yoffset=10   xadvance=13   page=0    chnl=0
char id=61   x=347  y=65   width=11   height=7    xoffset=2    yoffset=12   xadvance=15   page=0    chnl=0
char id=62   x=287  y=53   width=11   height=12   xoffset=2    yoffset=10   xadvance=14   page=0    chnl=0
char id=63   x=35   y=473  width=11   height=19   xoffset=1    yoffset=5    xadvance=12   page=0    chnl=0
char id=64   x=99   y=4    width=21   height=24   xoffset=1    yoffset=5    xadvance=23   page=0    chnl=0
char id=65   x=83   y=31   width=17   height=19   xoffset=0    yoffset=5    xadvance=17   page=0    chnl=0
char id=66   x=129  y=31   width=13   height=19   xoffset=2    yoffset=5    xadvance=16   page=0    chnl=0
char id=67   x=203  y=31   width=15   height=19   xoffset=2    yoffset=5    xadvance=17   page=0    chnl=0
char id=68   x=220  y=31   width=14   height=19   xoffset=2    yoffset=5    xadvance=17   page=0    chnl=0
char id=69   x=21   y=334  width=12   height=19   xoffset=2    yoffset=5    xadvance=15   page=0    chnl=0
char id=70   x=21   y=355  width=12   height=19   xoffset=2    yoffset=5    xadvance=14   page=0    chnl=0
char id=71   x=236  y=31   width=15   height=19   xoffset=2    yoffset=5    xadvance=18   page=0    chnl=0
char id=72   x=253  y=31   width=14   height=19   xoffset=2    yoffset=5    xadvance=18   page=0    chnl=0
char id=73   x=2    y=255  width=3    height=19   xoffset=2    yoffset=5    xadvance=7    page=0    chnl=0
char id=74   x=21   y=418  width=12   height=19   xoffset=1    yoffset=5    xadvance=14   page=0    chnl=0
char id=75   x=269  y=31   width=15   height=19   xoffset=2    yoffset=5    xadvance=16   page=0    chnl=0
char id=76   x=21   y=439  width=11   height=19   xoffset=2    yoffset=5    xadvance=14   page=0    chnl=0
char id=77   x=286  y=31   width=19   height=19   xoffset=2    yoffset=5    xadvance=23   page=0    chnl=0
char id=78   x=328  y=31   width=14   height=19   xoffset=2    yoffset=5    xadvance=18   page=0    chnl=0
char id=79   x=344  y=31   width=15   height=19   xoffset=2    yoffset=5    xadvance=19   page=0    chnl=0
char id=80   x=361  y=31   width=14   height=19   xoffset=2    yoffset=5    xadvance=16   page=0    chnl=0
char id=81   x=487  y=4    width=16   height=22   xoffset=1    yoffset=5    xadvance=18   page=0    chnl=0
char id=82   x=398  y=31   width=14   height=19   xoffset=2    yoffset=5    xadvance=16   page=0    chnl=0
char id=83   x=445  y=31   width=14   height=19   xoffset=1    yoffset=5    xadvance=15   page=0    chnl=0
char id=84   x=490  y=31   width=14   height=19   xoffset=1    yoffset=5    xadvance=16   page=0    chnl=0
char id=85   x=35   y=53   width=14   height=19   xoffset=2    yoffset=5    xadvance=17   page=0    chnl=0
char id=86   x=51   y=53   width=17   height=19   xoffset=0    yoffset=5    xadvance=17   page=0    chnl=0
char id=87   x=70   y=53   width=23   height=19   xoffset=0    yoffset=5    xadvance=23   page=0    chnl=0
char id=88   x=51   y=95   width=16   height=19   xoffset=0    yoffset=5    xadvance=16   page=0    chnl=0
char id=89   x=51   y=116  width=16   height=19   xoffset=0    yoffset=5    xadvance=16   page=0    chnl=0
char id=90   x=35   y=95   width=13   height=19   xoffset=1    yoffset=5    xadvance=15   page=0    chnl=0
char id=91   x=2    y=33   width=5    height=25   xoffset=2    yoffset=3    xadvance=8    page=0    chnl=0
char id=92   x=21   y=121  width=11   height=20   xoffset=0    yoffset=5    xadvance=11   page=0    chnl=0
char id=93   x=2    y=60   width=6    height=25   xoffset=0    yoffset=3    xadvance=7    page=0    chnl=0
char id=94   x=373  y=53   width=10   height=9    xoffset=0    yoffset=6    xadvance=11   page=0    chnl=0
char id=95   x=116  y=69   width=12   height=2    xoffset=1    yoffset=24   xadvance=14   page=0    chnl=0
char id=96   x=2    y=488  width=7    height=4    xoffset=0    yoffset=4    xadvance=8    page=0    chnl=0
char id=97   x=116  y=53   width=12   height=14   xoffset=1    yoffset=10   xadvance=14   page=0    chnl=0
char id=98   x=35   y=158  width=12   height=19   xoffset=2    yoffset=5    xadvance=15   page=0    chnl=0
char id=99   x=180  y=53   width=12   height=14   xoffset=1    yoffset=10   xadvance=13   page=0    chnl=0
char id=100  x=35   y=242  width=12   height=19   xoffset=1    yoffset=5    xadvance=14   page=0    chnl=0
char id=101  x=194  y=53   width=12   height=14   xoffset=1    yoffset=10   xadvance=13   page=0    chnl=0
char id=102  x=11   y=140  width=8    height=20   xoffset=1    yoffset=4    xadvance=10   page=0    chnl=0
char id=103  x=35   y=263  width=12   height=19   xoffset=1    yoffset=10   xadvance=14   page=0    chnl=0
char id=104  x=35   y=284  width=11   height=19   xoffset=2    yoffset=5    xadvance=15   page=0    chnl=0
char id=105  x=2    y=297  width=3    height=19   xoffset=2    yoffset=5    xadvance=6    page=0    chnl=0
char id=106  x=2    y=87   width=6    height=24   xoffset=-1   yoffset=5    xadvance=6    page=0    chnl=0
char id=107  x=35   y=410  width=12   height=19   xoffset=2    yoffset=5    xadvance=13   page=0    chnl=0
char id=108  x=2    y=318  width=3    height=19   xoffset=2    yoffset=5    xadvance=6    page=0    chnl=0
char id=109  x=158  y=53   width=20   height=14   xoffset=2    yoffset=10   xadvance=23   page=0    chnl=0
char id=110  x=145  y=53   width=11   height=14   xoffset=2    yoffset=10   xadvance=15   page=0    chnl=0
char id=111  x=130  y=53   width=13   height=14   xoffset=1    yoffset=10   xadvance=15   page=0    chnl=0
char id=112  x=35   y=431  width=12   height=19   xoffset=2    yoffset=10   xadvance=15   page=0    chnl=0
char id=113  x=35   y=452  width=12   height=19   xoffset=1    yoffset=10   xadvance=14   page=0    chnl=0
char id=114  x=2    y=400  width=7    height=14   xoffset=2    yoffset=10   xadvance=9    page=0    chnl=0
char id=115  x=51   y=463  width=11   height=14   xoffset=1    yoffset=10   xadvance=13   page=0    chnl=0
char id=116  x=2    y=380  width=7    height=18   xoffset=1    yoffset=6    xadvance=9    page=0    chnl=0
char id=117  x=51   y=447  width=11   height=14   xoffset=2    yoffset=10   xadvance=15   page=0    chnl=0
char id=118  x=51   y=479  width=13   height=14   xoffset=0    yoffset=10   xadvance=13   page=0    chnl=0
char id=119  x=95   y=53   width=19   height=14   xoffset=0    yoffset=10   xadvance=20   page=0    chnl=0
char id=120  x=230  y=53   width=13   height=14   xoffset=0    yoffset=10   xadvance=13   page=0    chnl=0
char id=121  x=51   y=179  width=12   height=19   xoffset=0    yoffset=10   xadvance=12   page=0    chnl=0
char id=122  x=35   y=494  width=11   height=14   xoffset=1    yoffset=10   xadvance=13   page=0    chnl=0
char id=123  x=11   y=33   width=8    height=26   xoffset=0    yoffset=3    xadvance=8    page=0    chnl=0
char id=124  x=2    y=165  width=3    height=22   xoffset=2    yoffset=5    xadvance=7    page=0    chnl=0
char id=125  x=11   y=61   width=8    height=26   xoffset=0    yoffset=3    xadvance=9    page=0    chnl=0
char id=126  x=385  y=53   width=15   height=5    xoffset=2    yoffset=14   xadvance=18   page=0    chnl=0
char id=160  x=6    y=2    width=0    height=0    xoffset=0    yoffset=24   xadvance=6    page=0    chnl=0
char id=161  x=2    y=276  width=3    height=19   xoffset=2    yoffset=10   xadvance=6    page=0    chnl=0
char id=162  x=21   y=143  width=12   height=20   xoffset=1    yoffset=7    xadvance=14   page=0    chnl=0
char id=163  x=461  y=31   width=13   height=19   xoffset=1    yoffset=5    xadvance=15   page=0    chnl=0
char id=164  x=51   y=409  width=17   height=18   xoffset=1    yoffset=7    xadvance=19   page=0    chnl=0
char id=165  x=428  y=31   width=15   height=19   xoffset=0    yoffset=5    xadvance=15   page=0    chnl=0
char id=166  x=2    y=189  width=3    height=22   xoffset=2    yoffset=5    xadvance=6    page=0    chnl=0
char id=167  x=21   y=4    width=14   height=25   xoffset=1    yoffset=5    xadvance=16   page=0    chnl=0
char id=168  x=11   y=217  width=8    height=3    xoffset=1    yoffset=5    xadvance=10   page=0    chnl=0
char id=169  x=377  y=31   width=19   height=19   xoffset=0    yoffset=5    xadvance=20   page=0    chnl=0
char id=170  x=322  y=53   width=9    height=11   xoffset=2    yoffset=5    xadvance=12   page=0    chnl=0
char id=171  x=360  y=53   width=11   height=10   xoffset=1    yoffset=12   xadvance=12   page=0    chnl=0
char id=172  x=21   y=502  width=11   height=6    xoffset=2    yoffset=14   xadvance=15   page=0    chnl=0
char id=173  x=11   y=222  width=6    height=2    xoffset=1    yoffset=15   xadvance=8    page=0    chnl=0
char id=174  x=307  y=31   width=19   height=19   xoffset=0    yoffset=5    xadvance=20   page=0    chnl=0
char id=175  x=95   y=69   width=9    height=2    xoffset=2    yoffset=5    xadvance=13   page=0    chnl=0
char id=176  x=2    y=463  width=7    height=7    xoffset=2    yoffset=5    xadvance=10   page=0    chnl=0
char id=177  x=51   y=429  width=12   height=16   xoffset=1    yoffset=8    xadvance=14   page=0    chnl=0
char id=178  x=11   y=204  width=8    height=11   xoffset=1    yoffset=5    xadvance=10   page=0    chnl=0
char id=179  x=311  y=53   width=9    height=11   xoffset=0    yoffset=5    xadvance=9    page=0    chnl=0
char id=180  x=2    y=494  width=6    height=4    xoffset=1    yoffset=4    xadvance=8    page=0    chnl=0
char id=181  x=21   y=397  width=11   height=19   xoffset=2    yoffset=10   xadvance=15   page=0    chnl=0
char id=182  x=21   y=376  width=11   height=19   xoffset=0    yoffset=5    xadvance=12   page=0    chnl=0
char id=183  x=2    y=505  width=3    height=3    xoffset=2    yoffset=13   xadvance=6    page=0    chnl=0
char id=184  x=2    y=445  width=5    height=7    xoffset=2    yoffset=23   xadvance=7    page=0    chnl=0
char id=185  x=2    y=432  width=5    height=11   xoffset=1    yoffset=5    xadvance=9    page=0    chnl=0
char id=186  x=300  y=53   width=9    height=11   xoffset=2    yoffset=5    xadvance=13   page=0    chnl=0
char id=187  x=347  y=53   width=11   height=10   xoffset=1    yoffset=12   xadvance=12   page=0    chnl=0
char id=188  x=184  y=31   width=17   height=19   xoffset=1    yoffset=5    xadvance=19   page=0    chnl=0
char id=189  x=164  y=31   width=18   height=19   xoffset=1    yoffset=5    xadvance=20   page=0    chnl=0
char id=190  x=144  y=31   width=18   height=19   xoffset=1    yoffset=5    xadvance=20   page=0    chnl=0
char id=191  x=21   y=313  width=11   height=19   xoffset=1    yoffset=10   xadvance=12   page=0    chnl=0
char id=192  x=136  y=4    width=17   height=24   xoffset=0    yoffset=0    xadvance=17   page=0    chnl=0
char id=193  x=155  y=4    width=17   height=24   xoffset=0    yoffset=0    xadvance=17   page=0    chnl=0
char id=194  x=174  y=4    width=17   height=24   xoffset=0    yoffset=0    xadvance=17   page=0    chnl=0
char id=195  x=193  y=4    width=17   height=24   xoffset=0    yoffset=0    xadvance=17   page=0    chnl=0
char id=196  x=421  y=4    width=17   height=23   xoffset=-1   yoffset=1    xadvance=16   page=0    chnl=0
char id=197  x=37   y=4    width=17   height=25   xoffset=0    yoffset=-1   xadvance=17   page=0    chnl=0
char id=198  x=102  y=31   width=25   height=19   xoffset=-1   yoffset=5    xadvance=24   page=0    chnl=0
char id=199  x=212  y=4    width=15   height=24   xoffset=2    yoffset=5    xadvance=18   page=0    chnl=0
char id=200  x=229  y=4    width=12   height=24   xoffset=2    yoffset=0    xadvance=15   page=0    chnl=0
char id=201  x=243  y=4    width=12   height=24   xoffset=2    yoffset=0    xadvance=15   page=0    chnl=0
char id=202  x=257  y=4    width=12   height=24   xoffset=2    yoffset=0    xadvance=15   page=0    chnl=0
char id=203  x=440  y=4    width=12   height=23   xoffset=2    yoffset=1    xadvance=15   page=0    chnl=0
char id=204  x=2    y=113  width=6    height=24   xoffset=-1   yoffset=0    xadvance=7    page=0    chnl=0
char id=205  x=2    y=139  width=7    height=24   xoffset=1    yoffset=0    xadvance=7    page=0    chnl=0
char id=206  x=11   y=89   width=8    height=24   xoffset=-1   yoffset=0    xadvance=7    page=0    chnl=0
char id=207  x=11   y=115  width=8    height=23   xoffset=0    yoffset=1    xadvance=8    page=0    chnl=0
char id=208  x=51   y=158  width=16   height=19   xoffset=1    yoffset=5    xadvance=19   page=0    chnl=0
char id=209  x=271  y=4    width=14   height=24   xoffset=2    yoffset=0    xadvance=18   page=0    chnl=0
char id=210  x=287  y=4    width=15   height=24   xoffset=2    yoffset=0    xadvance=19   page=0    chnl=0
char id=211  x=304  y=4    width=15   height=24   xoffset=2    yoffset=0    xadvance=19   page=0    chnl=0
char id=212  x=321  y=4    width=15   height=24   xoffset=2    yoffset=0    xadvance=19   page=0    chnl=0
char id=213  x=338  y=4    width=15   height=24   xoffset=2    yoffset=0    xadvance=19   page=0    chnl=0
char id=214  x=470  y=4    width=15   height=23   xoffset=2    yoffset=1    xadvance=19   page=0    chnl=0
char id=215  x=245  y=53   width=12   height=13   xoffset=1    yoffset=9    xadvance=14   page=0    chnl=0
char id=216  x=35   y=31   width=16   height=20   xoffset=1    yoffset=5    xadvance=18   page=0    chnl=0
char id=217  x=355  y=4    width=14   height=24   xoffset=2    yoffset=0    xadvance=17   page=0    chnl=0
char id=218  x=371  y=4    width=14   height=24   xoffset=2    yoffset=0    xadvance=17   page=0    chnl=0
char id=219  x=387  y=4    width=14   height=24   xoffset=2    yoffset=0    xadvance=17   page=0    chnl=0
char id=220  x=454  y=4    width=14   height=23   xoffset=2    yoffset=1    xadvance=17   page=0    chnl=0
char id=221  x=403  y=4    width=16   height=24   xoffset=0    yoffset=0    xadvance=16   page=0    chnl=0
char id=222  x=21   y=229  width=12   height=19   xoffset=2    yoffset=5    xadvance=15   page=0    chnl=0
char id=223  x=68   y=31   width=13   height=20   xoffset=2    yoffset=4    xadvance=15   page=0    chnl=0
char id=224  x=35   y=221  width=12   height=19   xoffset=1    yoffset=5    xadvance=14   page=0    chnl=0
char id=225  x=414  y=31   width=12   height=19   xoffset=1    yoffset=5    xadvance=14   page=0    chnl=0
char id=226  x=21   y=271  width=12   height=19   xoffset=1    yoffset=5    xadvance=14   page=0    chnl=0
char id=227  x=21   y=77   width=12   height=20   xoffset=1    yoffset=4    xadvance=14   page=0    chnl=0
char id=228  x=21   y=460  width=12   height=19   xoffset=1    yoffset=5    xadvance=14   page=0    chnl=0
char id=229  x=21   y=54   width=12   height=21   xoffset=1    yoffset=3    xadvance=14   page=0    chnl=0
char id=230  x=208  y=53   width=20   height=14   xoffset=1    yoffset=10   xadvance=22   page=0    chnl=0
char id=231  x=35   y=179  width=12   height=19   xoffset=1    yoffset=10   xadvance=13   page=0    chnl=0
char id=232  x=476  y=31   width=12   height=19   xoffset=1    yoffset=5    xadvance=13   page=0    chnl=0
char id=233  x=21   y=292  width=12   height=19   xoffset=1    yoffset=5    xadvance=13   page=0    chnl=0
char id=234  x=21   y=187  width=12   height=19   xoffset=1    yoffset=5    xadvance=13   page=0    chnl=0
char id=235  x=21   y=208  width=12   height=19   xoffset=1    yoffset=5    xadvance=13   page=0    chnl=0
char id=236  x=2    y=213  width=6    height=19   xoffset=-1   yoffset=5    xadvance=6    page=0    chnl=0
char id=237  x=2    y=234  width=7    height=19   xoffset=1    yoffset=5    xadvance=6    page=0    chnl=0
char id=238  x=21   y=250  width=9    height=19   xoffset=-1   yoffset=5    xadvance=6    page=0    chnl=0
char id=239  x=11   y=162  width=8    height=19   xoffset=-1   yoffset=5    xadvance=6    page=0    chnl=0
char id=240  x=21   y=31   width=12   height=21   xoffset=2    yoffset=3    xadvance=16   page=0    chnl=0
char id=241  x=21   y=165  width=11   height=20   xoffset=2    yoffset=4    xadvance=14   page=0    chnl=0
char id=242  x=35   y=137  width=13   height=19   xoffset=1    yoffset=5    xadvance=15   page=0    chnl=0
char id=243  x=35   y=200  width=13   height=19   xoffset=1    yoffset=5    xadvance=15   page=0    chnl=0
char id=244  x=35   y=326  width=13   height=19   xoffset=1    yoffset=5    xadvance=15   page=0    chnl=0
char id=245  x=53   y=31   width=13   height=20   xoffset=1    yoffset=4    xadvance=15   page=0    chnl=0
char id=246  x=35   y=389  width=13   height=19   xoffset=1    yoffset=5    xadvance=15   page=0    chnl=0
char id=247  x=259  y=53   width=13   height=13   xoffset=1    yoffset=9    xadvance=15   page=0    chnl=0
char id=248  x=51   y=389  width=13   height=18   xoffset=1    yoffset=8    xadvance=14   page=0    chnl=0
char id=249  x=21   y=481  width=11   height=19   xoffset=2    yoffset=5    xadvance=15   page=0    chnl=0
char id=250  x=35   y=347  width=11   height=19   xoffset=2    yoffset=5    xadvance=15   page=0    chnl=0
char id=251  x=35   y=368  width=11   height=19   xoffset=2    yoffset=5    xadvance=15   page=0    chnl=0
char id=252  x=35   y=305  width=11   height=19   xoffset=2    yoffset=5    xadvance=15   page=0    chnl=0
char id=253  x=85   y=4    width=12   height=24   xoffset=0    yoffset=5    xadvance=12   page=0    chnl=0
char id=254  x=71   y=4    width=12   height=24   xoffset=2    yoffset=5    xadvance=15   page=0    chnl=0
char id=255  x=56   y=4    width=13   height=24   xoffset=0    yoffset=5    xadvance=13   page=0    chnl=0
char id=8364 x=35   y=116  width=13   height=19   xoffset=1    yoffset=5    xadvance=15   page=0    chnl=0
kernings count=0
